module ttcs

go 1.17

require (
	github.com/BurntSushi/toml v0.3.1
	github.com/Workiva/go-datastructures v1.0.53
	github.com/gin-contrib/sessions v0.0.3
	github.com/gin-gonic/gin v1.7.1
	github.com/nicksnyder/go-i18n/v2 v2.1.2
	github.com/op/go-logging v0.0.0-20160315200505-970db520ece7
	github.com/robfig/cron/v3 v3.0.1
	github.com/shirou/gopsutil v3.21.3+incompatible
	github.com/xtls/xray-core v1.4.2
	go.uber.org/atomic v1.7.0
	golang.org/x/text v0.3.6
	google.golang.org/grpc v1.38.0
	gorm.io/driver/sqlite v1.1.4
	gorm.io/gorm v1.21.9
)

require (
	github.com/StackExchange/wmi v0.0.0-20210224194228-fe8f1750fd46 // indirect
	github.com/gin-contrib/sse v0.1.0 // indirect
	github.com/go-ole/go-ole v1.2.5 // indirect
	github.com/go-playground/locales v0.13.0 // indirect
	github.com/go-playground/universal-translator v0.17.0 // indirect
	github.com/go-playground/validator/v10 v10.4.1 // indirect
	github.com/golang/protobuf v1.5.2 // indirect
	github.com/gorilla/context v1.1.1 // indirect
	github.com/gorilla/securecookie v1.1.1 // indirect
	github.com/gorilla/sessions v1.1.3 // indirect
	github.com/jinzhu/inflection v1.0.0 // indirect
	github.com/jinzhu/now v1.1.2 // indirect
	github.com/json-iterator/go v1.1.9 // indirect
	github.com/leodido/go-urn v1.2.0 // indirect
	github.com/mattn/go-isatty v0.0.12 // indirect
	github.com/mattn/go-sqlite3 v1.14.5 // indirect
	github.com/modern-go/concurrent v0.0.0-20180306012644-bacd9c7ef1dd // indirect
	github.com/modern-go/reflect2 v1.0.1 // indirect
	github.com/pires/go-proxyproto v0.5.0 // indirect
	github.com/tklauser/go-sysconf v0.3.5 // indirect
	github.com/tklauser/numcpus v0.2.2 // indirect
	github.com/ugorji/go/codec v1.1.7 // indirect
	golang.org/x/crypto v0.0.0-20210322153248-0c34fe9e7dc2 // indirect
	golang.org/x/net v0.0.0-20210330230544-e57232859fb2 // indirect
	golang.org/x/sys v0.0.0-20210511113859-b0526f3d8744 // indirect
	google.golang.org/genproto v0.0.0-20200526211855-cb27e3aa2013 // indirect
	google.golang.org/protobuf v1.26.0 // indirect
	gopkg.in/yaml.v2 v2.4.0 // indirect
)
